2012-06-11 16:00:05.887+0800,BEG,SessionId='e50a5de7 00000000 00000000 00000000',LegId='0xE50A5DE7',StartTime='1339401569',ConnectedTime='1339401605',Calling='',Called='3330000',NAP='SS7_NAP',Protocol='SS7',Direction='originate' 
2012-06-11 16:00:05.898+0800,BEG,SessionId='e50a5de7 00000000 00000000 00000000',LegId='0x650A5E2E',StartTime='1339401598',ConnectedTime='1339401605',Calling='',Called='3330000',NAP='SIP_TB',Protocol='SIP',Direction='answer' 
2012-06-11 16:00:05.898+0800,BEG,SessionId='e50a5de6 00000000 00000000 00000000',LegId='0xE50A5DE6',StartTime='1339401539',ConnectedTime='1339401605',Calling='candy',Called='3330000',NAP='SIP_THINK',Protocol='SIP',Direction='originate' 
2012-06-11 16:00:05.899+0800,BEG,SessionId='e50a5de6 00000000 00000000 00000000',LegId='0x650A5E2D',StartTime='1339401569',ConnectedTime='1339401605',Calling='candy',Called='3330000',NAP='SS7_NAP',Protocol='SS7',Direction='answer' 
2012-06-11 16:00:11.008+0800,END,SessionId='e50a5de7 00000000 00000000 00000000',LegId='0x650A5E2E',StartTime='1339401598',ConnectedTime='1339401605',EndTime='1339401610',FreedTime='1339401611',TerminationCause='TOOLPACK_NORMAL',TerminationSource='App',Calling='',Called='3330000',NAP='SIP_TB',Direction='answer' 
2012-06-11 16:00:11.262+0800,END,SessionId='e50a5de6 00000000 00000000 00000000',LegId='0x650A5E2D',StartTime='1339401569',ConnectedTime='1339401605',EndTime='1339401611',FreedTime='1339401611',TerminationCause='CALL_REJECTED',TerminationSource='App',Calling='candy',Called='3330000',NAP='SS7_NAP',Direction='answer' 
2012-06-11 16:00:11.262+0800,END,SessionId='e50a5de7 00000000 00000000 00000000',LegId='0xE50A5DE7',StartTime='1339401569',ConnectedTime='1339401605',EndTime='1339401611',FreedTime='1339401611',TerminationCause='CALL_REJECTED',TerminationSource='TermInd',Calling='',Called='3330000',NAP='SS7_NAP',Direction='originate' 
2012-06-11 16:00:15.521+0800,END,SessionId='e50a5de6 00000000 00000000 00000000',LegId='0xE50A5DE6',StartTime='1339401539',ConnectedTime='1339401605',EndTime='1339401615',FreedTime='1339401615',TerminationCause='TOOLPACK_NORMAL',TerminationSource='TermInd',Calling='candy',Called='3330000',NAP='SIP_THINK',Direction='originate' 
2012-06-11 16:03:55.145+0800,BEG,SessionId='e50a5de9 00000000 00000000 00000000',LegId='0xE50A5DE9',StartTime='1339401829',ConnectedTime='1339401835',Calling='8888',Called='7777',NAP='SS7_NAP',Protocol='SS7',Direction='originate' 
2012-06-11 16:03:55.145+0800,BEG,SessionId='e50a5de9 00000000 00000000 00000000',LegId='0x650A5E30',StartTime='1339401829',ConnectedTime='1339401835',Calling='8888',Called='7777',NAP='SIP_TB',Protocol='SIP',Direction='answer' 
2012-06-11 16:03:55.291+0800,BEG,SessionId='e50a5de8 00000000 00000000 00000000',LegId='0xE50A5DE8',StartTime='1339401799',ConnectedTime='1339401835',Calling='candy',Called='3330000',NAP='SIP_THINK',Protocol='SIP',Direction='originate' 
2012-06-11 16:03:55.292+0800,BEG,SessionId='e50a5de8 00000000 00000000 00000000',LegId='0x650A5E2F',StartTime='1339401829',ConnectedTime='1339401835',Calling='8888',Called='7777',NAP='SS7_NAP',Protocol='SS7',Direction='answer' 
2012-06-11 16:04:00.399+0800,END,SessionId='e50a5de8 00000000 00000000 00000000',LegId='0x650A5E2F',StartTime='1339401829',ConnectedTime='1339401835',EndTime='1339401840',FreedTime='1339401840',TerminationCause='CALL_REJECTED',TerminationSource='App',Calling='8888',Called='7777',NAP='SS7_NAP',Direction='answer' 
2012-06-11 16:04:00.399+0800,END,SessionId='e50a5de9 00000000 00000000 00000000',LegId='0xE50A5DE9',StartTime='1339401829',ConnectedTime='1339401835',EndTime='1339401840',FreedTime='1339401840',TerminationCause='CALL_REJECTED',TerminationSource='TermInd',Calling='8888',Called='7777',NAP='SS7_NAP',Direction='originate' 
2012-06-11 16:04:00.400+0800,END,SessionId='e50a5de9 00000000 00000000 00000000',LegId='0x650A5E30',StartTime='1339401829',ConnectedTime='1339401835',EndTime='1339401840',FreedTime='1339401840',TerminationCause='CALL_REJECTED',TerminationSource='JoinedTermInd',Calling='8888',Called='7777',NAP='SIP_TB',Direction='answer' 
2012-06-11 16:04:08.871+0800,END,SessionId='e50a5de8 00000000 00000000 00000000',LegId='0xE50A5DE8',StartTime='1339401799',ConnectedTime='1339401835',EndTime='1339401848',FreedTime='1339401848',TerminationCause='TOOLPACK_NORMAL',TerminationSource='App',Calling='candy',Called='3330000',NAP='SIP_THINK',Direction='originate' 
2012-06-11 16:07:07.894+0800,BEG,SessionId='e50a5deb 00000000 00000000 00000000',LegId='0xE50A5DEB',StartTime='1339402026',ConnectedTime='1339402027',Calling='',Called='4440000',NAP='SS7_NAP',Protocol='SS7',Direction='originate' 
2012-06-11 16:07:07.895+0800,BEG,SessionId='e50a5deb 00000000 00000000 00000000',LegId='0x650A5E32',StartTime='1339402026',ConnectedTime='1339402027',Calling='',Called='4440000',NAP='SIP_TB',Protocol='SIP',Direction='answer' 
2012-06-11 16:07:07.998+0800,BEG,SessionId='e50a5dea 00000000 00000000 00000000',LegId='0xE50A5DEA',StartTime='1339401996',ConnectedTime='1339402027',Calling='candy',Called='3330000',NAP='SIP_THINK',Protocol='SIP',Direction='originate' 
2012-06-11 16:07:07.998+0800,BEG,SessionId='e50a5dea 00000000 00000000 00000000',LegId='0x650A5E31',StartTime='1339402026',ConnectedTime='1339402027',Calling='TB004386',Called='4440000',NAP='SS7_NAP',Protocol='SS7',Direction='answer' 
2012-06-11 16:07:13.086+0800,END,SessionId='e50a5dea 00000000 00000000 00000000',LegId='0x650A5E31',StartTime='1339402026',ConnectedTime='1339402027',EndTime='1339402032',FreedTime='1339402033',TerminationCause='CALL_REJECTED',TerminationSource='App',Calling='TB004386',Called='4440000',NAP='SS7_NAP',Direction='answer' 
2012-06-11 16:07:13.187+0800,END,SessionId='e50a5deb 00000000 00000000 00000000',LegId='0xE50A5DEB',StartTime='1339402026',ConnectedTime='1339402027',EndTime='1339402033',FreedTime='1339402033',TerminationCause='CALL_REJECTED',TerminationSource='TermInd',Calling='',Called='4440000',NAP='SS7_NAP',Direction='originate' 
2012-06-11 16:07:13.187+0800,END,SessionId='e50a5deb 00000000 00000000 00000000',LegId='0x650A5E32',StartTime='1339402026',ConnectedTime='1339402027',EndTime='1339402033',FreedTime='1339402033',TerminationCause='CALL_REJECTED',TerminationSource='JoinedTermInd',Calling='',Called='4440000',NAP='SIP_TB',Direction='answer' 
2012-06-11 16:07:21.709+0800,END,SessionId='e50a5dea 00000000 00000000 00000000',LegId='0xE50A5DEA',StartTime='1339401996',ConnectedTime='1339402027',EndTime='1339402041',FreedTime='1339402041',TerminationCause='TOOLPACK_NORMAL',TerminationSource='App',Calling='candy',Called='3330000',NAP='SIP_THINK',Direction='originate' 
2012-06-11 16:10:31.464+0800,BEG,SessionId='e50a5ded 00000000 00000000 00000000',LegId='0xE50A5DED',StartTime='1339402228',ConnectedTime='1339402231',Calling='',Called='4440000',NAP='SS7_NAP',Protocol='SS7',Direction='originate' 
2012-06-11 16:10:31.466+0800,BEG,SessionId='e50a5ded 00000000 00000000 00000000',LegId='0x650A5E34',StartTime='1339402228',ConnectedTime='1339402231',Calling='',Called='4440000',NAP='SIP_TB',Protocol='SIP',Direction='answer' 
2012-06-11 16:10:31.466+0800,BEG,SessionId='e50a5dec 00000000 00000000 00000000',LegId='0xE50A5DEC',StartTime='1339402199',ConnectedTime='1339402231',Calling='candy',Called='3330000',NAP='SIP_THINK',Protocol='SIP',Direction='originate' 
2012-06-11 16:10:31.468+0800,BEG,SessionId='e50a5dec 00000000 00000000 00000000',LegId='0x650A5E33',StartTime='1339402228',ConnectedTime='1339402231',Calling='TB004386',Called='4440000',NAP='SS7_NAP',Protocol='SS7',Direction='answer' 
2012-06-11 16:10:36.557+0800,END,SessionId='e50a5dec 00000000 00000000 00000000',LegId='0x650A5E33',StartTime='1339402228',ConnectedTime='1339402231',EndTime='1339402236',FreedTime='1339402236',TerminationCause='CALL_REJECTED',TerminationSource='App',Calling='TB004386',Called='4440000',NAP='SS7_NAP',Direction='answer' 
2012-06-11 16:10:36.558+0800,END,SessionId='e50a5ded 00000000 00000000 00000000',LegId='0xE50A5DED',StartTime='1339402228',ConnectedTime='1339402231',EndTime='1339402236',FreedTime='1339402236',TerminationCause='CALL_REJECTED',TerminationSource='TermInd',Calling='',Called='4440000',NAP='SS7_NAP',Direction='originate' 
2012-06-11 16:10:36.558+0800,END,SessionId='e50a5ded 00000000 00000000 00000000',LegId='0x650A5E34',StartTime='1339402228',ConnectedTime='1339402231',EndTime='1339402236',FreedTime='1339402236',TerminationCause='CALL_REJECTED',TerminationSource='JoinedTermInd',Calling='',Called='4440000',NAP='SIP_TB',Direction='answer' 
2012-06-11 16:10:39.583+0800,END,SessionId='e50a5dec 00000000 00000000 00000000',LegId='0xE50A5DEC',StartTime='1339402199',ConnectedTime='1339402231',EndTime='1339402239',FreedTime='1339402239',TerminationCause='TOOLPACK_NORMAL',TerminationSource='TermInd',Calling='candy',Called='3330000',NAP='SIP_THINK',Direction='originate' 
2012-06-11 16:12:32.856+0800,END,SessionId='e50a5def 00000000 00000000 00000000',LegId='0x650A5E36',StartTime='1339402343',ConnectedTime='0',EndTime='1339402352',FreedTime='1339402352',TerminationCause='603_DECLINE',TerminationSource='TermInd',Calling='',Called='4440000',NAP='SIP_TB',Direction='answer' 
2012-06-11 16:13:06.957+0800,END,SessionId='e50a5def 00000000 00000000 00000000',LegId='0x650A5E37',StartTime='1339402352',ConnectedTime='0',EndTime='1339402386',FreedTime='1339402386',TerminationCause='TOOLPACK_SIGNALING_ERROR',TerminationSource='Engine',Calling='',Called='4440000',NAP='VPN_CANDY1',Direction='answer' 
2012-06-11 16:13:18.307+0800,END,SessionId='e50a5dee 00000000 00000000 00000000',LegId='0x650A5E35',StartTime='1339402343',ConnectedTime='0',EndTime='1339402398',FreedTime='1339402398',TerminationCause='NORMAL_UNSPECIFIED',TerminationSource='JoinedTermInd',Calling='TB004386',Called='4440000',NAP='SS7_NAP',Direction='answer' 
2012-06-11 16:13:18.307+0800,END,SessionId='e50a5def 00000000 00000000 00000000',LegId='0xE50A5DEF',StartTime='1339402343',ConnectedTime='0',EndTime='1339402398',FreedTime='1339402398',TerminationCause='NORMAL_UNSPECIFIED',TerminationSource='TermInd',Calling='',Called='4440000',NAP='SS7_NAP',Direction='originate' 
2012-06-11 16:13:18.308+0800,END,SessionId='e50a5dee 00000000 00000000 00000000',LegId='0xE50A5DEE',StartTime='1339402314',ConnectedTime='0',EndTime='1339402398',FreedTime='1339402398',TerminationCause='NORMAL_UNSPECIFIED',TerminationSource='TermInd',Calling='candy',Called='3330000',NAP='SIP_THINK',Direction='originate' 
2012-06-11 16:30:28.691+0800,BEG,SessionId='e50a5df1 00000000 00000000 00000000',LegId='0xE50A5DF1',StartTime='1339403426',ConnectedTime='1339403428',Calling='441',Called='4440000',NAP='SS7_NAP',Protocol='SS7',Direction='originate' 
2012-06-11 16:30:28.692+0800,BEG,SessionId='e50a5df1 00000000 00000000 00000000',LegId='0x650A5E39',StartTime='1339403426',ConnectedTime='1339403428',Calling='441',Called='4440000',NAP='SIP_TB',Protocol='SIP',Direction='answer' 
2012-06-11 16:30:28.692+0800,BEG,SessionId='e50a5df0 00000000 00000000 00000000',LegId='0xE50A5DF0',StartTime='1339403397',ConnectedTime='1339403428',Calling='candy',Called='3330000',NAP='SIP_THINK',Protocol='SIP',Direction='originate' 
2012-06-11 16:30:28.692+0800,BEG,SessionId='e50a5df0 00000000 00000000 00000000',LegId='0x650A5E38',StartTime='1339403426',ConnectedTime='1339403428',Calling='TB004386',Called='4440000',NAP='SS7_NAP',Protocol='SS7',Direction='answer' 
2012-06-11 16:30:33.689+0800,END,SessionId='e50a5df0 00000000 00000000 00000000',LegId='0x650A5E38',StartTime='1339403426',ConnectedTime='1339403428',EndTime='1339403433',FreedTime='1339403433',TerminationCause='CALL_REJECTED',TerminationSource='App',Calling='TB004386',Called='4440000',NAP='SS7_NAP',Direction='answer' 
2012-06-11 16:30:33.690+0800,END,SessionId='e50a5df1 00000000 00000000 00000000',LegId='0xE50A5DF1',StartTime='1339403426',ConnectedTime='1339403428',EndTime='1339403433',FreedTime='1339403433',TerminationCause='CALL_REJECTED',TerminationSource='TermInd',Calling='441',Called='4440000',NAP='SS7_NAP',Direction='originate' 
2012-06-11 16:30:33.690+0800,END,SessionId='e50a5df1 00000000 00000000 00000000',LegId='0x650A5E39',StartTime='1339403426',ConnectedTime='1339403428',EndTime='1339403433',FreedTime='1339403433',TerminationCause='CALL_REJECTED',TerminationSource='JoinedTermInd',Calling='441',Called='4440000',NAP='SIP_TB',Direction='answer' 
2012-06-11 16:30:42.244+0800,END,SessionId='e50a5df0 00000000 00000000 00000000',LegId='0xE50A5DF0',StartTime='1339403397',ConnectedTime='1339403428',EndTime='1339403441',FreedTime='1339403442',TerminationCause='TOOLPACK_NORMAL',TerminationSource='App',Calling='candy',Called='3330000',NAP='SIP_THINK',Direction='originate' 
2012-06-11 16:35:27.889+0800,BEG,SessionId='e50a5df3 00000000 00000000 00000000',LegId='0xE50A5DF3',StartTime='1339403723',ConnectedTime='1339403727',Calling='0441',Called='4440000',NAP='SS7_NAP',Protocol='SS7',Direction='originate' 
2012-06-11 16:35:27.890+0800,BEG,SessionId='e50a5df3 00000000 00000000 00000000',LegId='0x650A5E3B',StartTime='1339403723',ConnectedTime='1339403727',Calling='4386',Called='4440000',NAP='SIP_TB',Protocol='SIP',Direction='answer' 
2012-06-11 16:35:27.992+0800,BEG,SessionId='e50a5df2 00000000 00000000 00000000',LegId='0xE50A5DF2',StartTime='1339403694',ConnectedTime='1339403727',Calling='candy',Called='3330000',NAP='SIP_THINK',Protocol='SIP',Direction='originate' 
2012-06-11 16:35:27.992+0800,BEG,SessionId='e50a5df2 00000000 00000000 00000000',LegId='0x650A5E3A',StartTime='1339403723',ConnectedTime='1339403727',Calling='4386',Called='4440000',NAP='SS7_NAP',Protocol='SS7',Direction='answer' 
2012-06-11 16:35:33.019+0800,END,SessionId='e50a5df2 00000000 00000000 00000000',LegId='0x650A5E3A',StartTime='1339403723',ConnectedTime='1339403727',EndTime='1339403732',FreedTime='1339403733',TerminationCause='CALL_REJECTED',TerminationSource='App',Calling='4386',Called='4440000',NAP='SS7_NAP',Direction='answer' 
2012-06-11 16:35:33.019+0800,END,SessionId='e50a5df3 00000000 00000000 00000000',LegId='0xE50A5DF3',StartTime='1339403723',ConnectedTime='1339403727',EndTime='1339403732',FreedTime='1339403733',TerminationCause='CALL_REJECTED',TerminationSource='TermInd',Calling='0441',Called='4440000',NAP='SS7_NAP',Direction='originate' 
2012-06-11 16:35:33.199+0800,END,SessionId='e50a5df3 00000000 00000000 00000000',LegId='0x650A5E3B',StartTime='1339403723',ConnectedTime='1339403727',EndTime='1339403732',FreedTime='1339403733',TerminationCause='CALL_REJECTED',TerminationSource='JoinedTermInd',Calling='4386',Called='4440000',NAP='SIP_TB',Direction='answer' 
2012-06-11 16:35:41.611+0800,END,SessionId='e50a5df2 00000000 00000000 00000000',LegId='0xE50A5DF2',StartTime='1339403694',ConnectedTime='1339403727',EndTime='1339403741',FreedTime='1339403741',TerminationCause='TOOLPACK_NORMAL',TerminationSource='App',Calling='candy',Called='3330000',NAP='SIP_THINK',Direction='originate' 
2012-06-11 16:40:48.784+0800,BEG,SessionId='e50a5df5 00000000 00000000 00000000',LegId='0xE50A5DF5',StartTime='1339404046',ConnectedTime='1339404048',Calling='0441',Called='4440000',NAP='SS7_NAP',Protocol='SS7',Direction='originate' 
2012-06-11 16:40:48.785+0800,BEG,SessionId='e50a5df5 00000000 00000000 00000000',LegId='0x650A5E3D',StartTime='1339404046',ConnectedTime='1339404048',Calling='4386',Called='4440000',NAP='SIP_TB',Protocol='SIP',Direction='answer' 
2012-06-11 16:40:48.886+0800,BEG,SessionId='e50a5df4 00000000 00000000 00000000',LegId='0xE50A5DF4',StartTime='1339404016',ConnectedTime='1339404048',Calling='candy',Called='3330000',NAP='SIP_THINK',Protocol='SIP',Direction='originate' 
2012-06-11 16:40:48.887+0800,BEG,SessionId='e50a5df4 00000000 00000000 00000000',LegId='0x650A5E3C',StartTime='1339404046',ConnectedTime='1339404048',Calling='4386',Called='4440000',NAP='SS7_NAP',Protocol='SS7',Direction='answer' 
2012-06-11 16:40:53.990+0800,END,SessionId='e50a5df4 00000000 00000000 00000000',LegId='0x650A5E3C',StartTime='1339404046',ConnectedTime='1339404048',EndTime='1339404053',FreedTime='1339404053',TerminationCause='CALL_REJECTED',TerminationSource='App',Calling='4386',Called='4440000',NAP='SS7_NAP',Direction='answer' 
2012-06-11 16:40:54.165+0800,END,SessionId='e50a5df5 00000000 00000000 00000000',LegId='0xE50A5DF5',StartTime='1339404046',ConnectedTime='1339404048',EndTime='1339404053',FreedTime='1339404054',TerminationCause='CALL_REJECTED',TerminationSource='TermInd',Calling='0441',Called='4440000',NAP='SS7_NAP',Direction='originate' 
2012-06-11 16:40:54.166+0800,END,SessionId='e50a5df5 00000000 00000000 00000000',LegId='0x650A5E3D',StartTime='1339404046',ConnectedTime='1339404048',EndTime='1339404053',FreedTime='1339404054',TerminationCause='CALL_REJECTED',TerminationSource='JoinedTermInd',Calling='4386',Called='4440000',NAP='SIP_TB',Direction='answer' 
2012-06-11 16:41:02.569+0800,END,SessionId='e50a5df4 00000000 00000000 00000000',LegId='0xE50A5DF4',StartTime='1339404016',ConnectedTime='1339404048',EndTime='1339404062',FreedTime='1339404062',TerminationCause='TOOLPACK_NORMAL',TerminationSource='App',Calling='candy',Called='3330000',NAP='SIP_THINK',Direction='originate' 
2012-06-11 16:43:03.268+0800,END,SessionId='e50a5df7 00000000 00000000 00000000',LegId='0x650A5E3F',StartTime='1339404178',ConnectedTime='0',EndTime='1339404183',FreedTime='1339404183',TerminationCause='603_DECLINE',TerminationSource='TermInd',Calling='4386',Called='4440000',NAP='SIP_TB',Direction='answer' 
2012-06-11 16:43:37.260+0800,END,SessionId='e50a5df7 00000000 00000000 00000000',LegId='0x650A5E40',StartTime='1339404183',ConnectedTime='0',EndTime='1339404217',FreedTime='1339404217',TerminationCause='TOOLPACK_SIGNALING_ERROR',TerminationSource='Engine',Calling='0441',Called='4440000',NAP='VPN_CANDY1',Direction='answer' 
2012-06-11 16:44:07.262+0800,END,SessionId='e50a5df7 00000000 00000000 00000000',LegId='0xE50A5DF7',StartTime='1339404178',ConnectedTime='0',EndTime='1339404247',FreedTime='1339404247',TerminationCause='PROTOCOL_ERROR',TerminationSource='App',Calling='0441',Called='4440000',NAP='SS7_NAP',Direction='originate' 
2012-06-11 16:44:07.263+0800,END,SessionId='e50a5df6 00000000 00000000 00000000',LegId='0x650A5E3E',StartTime='1339404178',ConnectedTime='0',EndTime='1339404247',FreedTime='1339404247',TerminationCause='PROTOCOL_ERROR',TerminationSource='TermInd',Calling='4386',Called='4440000',NAP='SS7_NAP',Direction='answer' 
2012-06-11 16:44:13.156+0800,END,SessionId='e50a5df6 00000000 00000000 00000000',LegId='0xE50A5DF6',StartTime='1339404149',ConnectedTime='0',EndTime='1339404252',FreedTime='1339404253',TerminationCause='500_SRV_INT_ERROR',TerminationSource='App',Calling='candy',Called='3330000',NAP='SIP_THINK',Direction='originate' 
2012-06-11 16:57:39.415+0800,END,SessionId='e50a5df9 00000000 00000000 00000000',LegId='0x650A5E42',StartTime='1339405054',ConnectedTime='0',EndTime='1339405059',FreedTime='1339405059',TerminationCause='603_DECLINE',TerminationSource='TermInd',Calling='4386',Called='4440000',NAP='SIP_TB',Direction='answer' 
2012-06-11 16:58:13.449+0800,END,SessionId='e50a5df9 00000000 00000000 00000000',LegId='0x650A5E43',StartTime='1339405059',ConnectedTime='0',EndTime='1339405093',FreedTime='1339405093',TerminationCause='TOOLPACK_SIGNALING_ERROR',TerminationSource='Engine',Calling='0441',Called='4440000',NAP='VPN_CANDY1',Direction='answer' 
2012-06-11 16:58:43.538+0800,END,SessionId='e50a5df9 00000000 00000000 00000000',LegId='0xE50A5DF9',StartTime='1339405054',ConnectedTime='0',EndTime='1339405123',FreedTime='1339405123',TerminationCause='PROTOCOL_ERROR',TerminationSource='App',Calling='0441',Called='4440000',NAP='SS7_NAP',Direction='originate' 
2012-06-11 16:58:43.538+0800,END,SessionId='e50a5df8 00000000 00000000 00000000',LegId='0x650A5E41',StartTime='1339405054',ConnectedTime='0',EndTime='1339405123',FreedTime='1339405123',TerminationCause='PROTOCOL_ERROR',TerminationSource='TermInd',Calling='4386',Called='4440000',NAP='SS7_NAP',Direction='answer' 
2012-06-11 16:58:49.328+0800,END,SessionId='e50a5df8 00000000 00000000 00000000',LegId='0xE50A5DF8',StartTime='1339405025',ConnectedTime='0',EndTime='1339405128',FreedTime='1339405129',TerminationCause='500_SRV_INT_ERROR',TerminationSource='App',Calling='candy',Called='3330000',NAP='SIP_THINK',Direction='originate' 
                                                                                                                                                                                                                 
